42
---
0 1 3 29
1 2 3 4
2 4 5 13
3 4 6
4 5 6 7
5 7
6 7 8
7 8
8 9
9 10 11
10 11 12
11 12 20
13 14 15
14 15 16 18
15 16 17
16 17 18 19
17 19 26 35
18 19 20
19 20 21 35
20 21 22 23
21 22 35
22 23 24 25 35
23 24
24 25
26 27 30 34
27 28 31 32 34
28 29 31
29 31 32 33
30 34 35 36
31 32
32 33 34
34 36 37
35 36
36 37
37 38
38 39 40
39 40 41
40 41
---
0 5 0 1 2 3 4 5 6 7 8
1 2 9 10 11 12
2 5 13 14 15 16 17 18 19
3 3 20 21 22 23 24 25
4 7 26 27 28 29 30 31 32 33 34 35 36 37
5 2 38 39 40 41
---
